FirstScintillatorTests/0OhmTests/SDS00002.csv

Record Length,Analog:1400
Sample Interval,CH1:0.0000000010000
Vertical Units,CH1:V,,,
Vertical Scale,CH1:0.01,,,
Vertical Offset,CH1:-0.01490,,,
Horizontal Units,us,,,
Horizontal Scale,0.0020000000,,,
Model Number,SDS1202X-E,,,
Serial Number,SDS1ECDD2R0225,,,
Software Version,8.1.1.3.23,,,
Source,CH1
Second,Volt
 0.00000000000,0.00030
 0.00000000100,0.00030
 0.00000000200,0.00030
 0.00000000300,0.00030
 0.00000000400,0.00030
 0.00000000500,0.00010
 0.00000000600,0.00010
 0.00000000700,0.00010
 0.00000000800,0.00010
 0.00000000900,0.00010
 0.00000001000,0.00010
 0.00000001100,0.00010
 0.00000001200,0.00010
 0.00000001300,0.00010
 0.00000001400,0.00010
 0.00000001500,0.00010
 0.00000001600,0.00010
 0.00000001700,0.00010
 0.00000001800,0.00010
 0.00000001900,0.00010
 0.00000002000,0.00010
 0.00000002100,0.00010
 0.00000002200,0.00010
 0.00000002300,0.00010
 0.00000002400,0.00010
 0.00000002500,0.00010
 0.00000002600,0.00010
 0.00000002700,0.00010
 0.00000002800,0.00010
 0.00000002900,0.00010
 0.00000003000,0.00010
 0.00000003100,0.00010
 0.00000003200,0.00010
 0.00000003300,0.00010
 0.00000003400,0.00010
 0.00000003500,0.00010
 0.00000003600,0.00010
 0.00000003700,-0.00010
 0.00000003800,-0.00010
 0.00000003900,-0.00010
 0.00000004000,-0.00010
 0.00000004100,-0.00010
 0.00000004200,-0.00010
 0.00000004300,-0.00010
 0.00000004400,-0.00010
 0.00000004500,-0.00010
 0.00000004600,-0.00010
 0.00000004700,-0.00010
 0.00000004800,-0.00010
 0.00000004900,-0.00010
 0.00000005000,-0.00010
 0.00000005100,-0.00010
 0.00000005200,-0.00010
 0.00000005300,-0.00010
 0.00000005400,0.00010
 0.00000005500,-0.00010
 0.00000005600,-0.00010
 0.00000005700,-0.00010
 0.00000005800,-0.00010
 0.00000005900,-0.00010
 0.00000006000,-0.00010
 0.00000006100,-0.00010
 0.00000006200,-0.00010
 0.00000006300,-0.00010
 0.00000006400,-0.00010
 0.00000006500,-0.00010
 0.00000006600,-0.00010
 0.00000006700,-0.00010
 0.00000006800,-0.00010
 0.00000006900,-0.00010
 0.00000007000,-0.00010
 0.00000007100,-0.00010
 0.00000007200,-0.00010
 0.00000007300,-0.00010
 0.00000007400,-0.00010
 0.00000007500,-0.00010
 0.00000007600,-0.00010
 0.00000007700,-0.00010
 0.00000007800,-0.00010
 0.00000007900,-0.00010
 0.00000008000,-0.00010
 0.00000008100,-0.00010
 0.00000008200,-0.00010
 0.00000008300,-0.00010
 0.00000008400,-0.00010
 0.00000008500,-0.00010
 0.00000008600,-0.00010
 0.00000008700,-0.00010
 0.00000008800,-0.00010
 0.00000008900,-0.00010
 0.00000009000,-0.00010
 0.00000009100,-0.00010
 0.00000009200,-0.00010
 0.00000009300,-0.00010
 0.00000009400,-0.00010
 0.00000009500,-0.00010
 0.00000009600,-0.00010
 0.00000009700,-0.00010
 0.00000009800,-0.00010
 0.00000009900,-0.00010
 0.00000010000,-0.00010
 0.00000010100,-0.00010
 0.00000010200,-0.00010
 0.00000010300,-0.00010
 0.00000010400,0.00010
 0.00000010500,-0.00010
 0.00000010600,-0.00010
 0.00000010700,-0.00010
 0.00000010800,-0.00010
 0.00000010900,-0.00010
 0.00000011000,-0.00010
 0.00000011100,-0.00010
 0.00000011200,-0.00010
 0.00000011300,-0.00010
 0.00000011400,-0.00010
 0.00000011500,-0.00010
 0.00000011600,-0.00010
 0.00000011700,-0.00010
 0.00000011800,-0.00010
 0.00000011900,-0.00010
 0.00000012000,-0.00010
 0.00000012100,-0.00010
 0.00000012200,-0.00010
 0.00000012300,-0.00010
 0.00000012400,-0.00010
 0.00000012500,-0.00010
 0.00000012600,-0.00010
 0.00000012700,-0.00010
 0.00000012800,-0.00010
 0.00000012900,-0.00010
 0.00000013000,-0.00010
 0.00000013100,-0.00010
 0.00000013200,-0.00010
 0.00000013300,-0.00010
 0.00000013400,-0.00010
 0.00000013500,-0.00010
 0.00000013600,-0.00010
 0.00000013700,-0.00010
 0.00000013800,-0.00010
 0.00000013900,-0.00010
 0.00000014000,-0.00010
 0.00000014100,-0.00010
 0.00000014200,-0.00010
 0.00000014300,-0.00010
 0.00000014400,-0.00010
 0.00000014500,-0.00010
 0.00000014600,-0.00010
 0.00000014700,-0.00010
 0.00000014800,-0.00010
 0.00000014900,-0.00010
 0.00000015000,-0.00010
 0.00000015100,-0.00010
 0.00000015200,-0.00010
 0.00000015300,-0.00010
 0.00000015400,0.00010
 0.00000015500,-0.00010
 0.00000015600,-0.00010
 0.00000015700,-0.00010
 0.00000015800,-0.00010
 0.00000015900,-0.00010
 0.00000016000,-0.00010
 0.00000016100,-0.00010
 0.00000016200,-0.00010
 0.00000016300,-0.00010
 0.00000016400,-0.00010
 0.00000016500,-0.00010
 0.00000016600,-0.00010
 0.00000016700,-0.00010
 0.00000016800,-0.00010
 0.00000016900,-0.00010
 0.00000017000,-0.00010
 0.00000017100,-0.00010
 0.00000017200,-0.00010
 0.00000017300,0.00010
 0.00000017400,0.00010
 0.00000017500,0.00010
 0.00000017600,0.00010
 0.00000017700,0.00010
 0.00000017800,0.00010
 0.00000017900,0.00010
 0.00000018000,0.00010
 0.00000018100,0.00010
 0.00000018200,0.00010
 0.00000018300,0.00010
 0.00000018400,0.00010
 0.00000018500,0.00010
 0.00000018600,0.00010
 0.00000018700,0.00010
 0.00000018800,0.00010
 0.00000018900,0.00010
 0.00000019000,0.00010
 0.00000019100,0.00010
 0.00000019200,0.00010
 0.00000019300,0.00010
 0.00000019400,0.00010
 0.00000019500,0.00010
 0.00000019600,0.00010
 0.00000019700,0.00010
 0.00000019800,0.00010
 0.00000019900,0.00010
 0.00000020000,0.00010
 0.00000020100,0.00010
 0.00000020200,0.00010
 0.00000020300,0.00010
 0.00000020400,0.00030
 0.00000020500,0.00010
 0.00000020600,0.00010
 0.00000020700,0.00010
 0.00000020800,0.00010
 0.00000020900,0.00010
 0.00000021000,0.00010
 0.00000021100,0.00010
 0.00000021200,0.00010
 0.00000021300,0.00010
 0.00000021400,0.00010
 0.00000021500,0.00010
 0.00000021600,0.00010
 0.00000021700,0.00010
 0.00000021800,0.00010
 0.00000021900,0.00010
 0.00000022000,0.00010
 0.00000022100,0.00010
 0.00000022200,0.00010
 0.00000022300,0.00010
 0.00000022400,0.00010
 0.00000022500,0.00010
 0.00000022600,0.00010
 0.00000022700,0.00010
 0.00000022800,0.00010
 0.00000022900,0.00010
 0.00000023000,0.00010
 0.00000023100,0.00010
 0.00000023200,0.00010
 0.00000023300,0.00010
 0.00000023400,0.00010
 0.00000023500,0.00010
 0.00000023600,0.00010
 0.00000023700,0.00010
 0.00000023800,0.00010
 0.00000023900,0.00010
 0.00000024000,0.00010
 0.00000024100,0.00010
 0.00000024200,0.00010
 0.00000024300,0.00010
 0.00000024400,-0.00010
 0.00000024500,-0.00010
 0.00000024600,-0.00010
 0.00000024700,-0.00010
 0.00000024800,-0.00010
 0.00000024900,-0.00010
 0.00000025000,-0.00010
 0.00000025100,-0.00010
 0.00000025200,-0.00010
 0.00000025300,-0.00010
 0.00000025400,0.00010
 0.00000025500,-0.00010
 0.00000025600,-0.00010
 0.00000025700,-0.00010
 0.00000025800,-0.00010
 0.00000025900,-0.00010
 0.00000026000,-0.00010
 0.00000026100,-0.00010
 0.00000026200,-0.00010
 0.00000026300,-0.00010
 0.00000026400,-0.00010
 0.00000026500,-0.00010
 0.00000026600,-0.00010
 0.00000026700,-0.00010
 0.00000026800,-0.00010
 0.00000026900,-0.00010
 0.00000027000,-0.00010
 0.00000027100,-0.00010
 0.00000027200,-0.00010
 0.00000027300,-0.00010
 0.00000027400,-0.00010
 0.00000027500,-0.00010
 0.00000027600,-0.00010
 0.00000027700,-0.00010
 0.00000027800,-0.00010
 0.00000027900,-0.00010
 0.00000028000,-0.00010
 0.00000028100,-0.00010
 0.00000028200,-0.00010
 0.00000028300,-0.00010
 0.00000028400,-0.00010
 0.00000028500,-0.00010
 0.00000028600,-0.00010
 0.00000028700,-0.00010
 0.00000028800,-0.00010
 0.00000028900,-0.00010
 0.00000029000,-0.00010
 0.00000029100,-0.00010
 0.00000029200,-0.00010
 0.00000029300,-0.00010
 0.00000029400,-0.00010
 0.00000029500,-0.00010
 0.00000029600,-0.00010
 0.00000029700,-0.00010
 0.00000029800,-0.00010
 0.00000029900,-0.00010
 0.00000030000,-0.00010
 0.00000030100,-0.00010
 0.00000030200,-0.00010
 0.00000030300,-0.00010
 0.00000030400,0.00010
 0.00000030500,-0.00010
 0.00000030600,-0.00010
 0.00000030700,-0.00010
 0.00000030800,-0.00010
 0.00000030900,-0.00010
 0.00000031000,-0.00010
 0.00000031100,-0.00010
 0.00000031200,-0.00010
 0.00000031300,-0.00010
 0.00000031400,-0.00010
 0.00000031500,-0.00010
 0.00000031600,-0.00010
 0.00000031700,-0.00010
 0.00000031800,-0.00010
 0.00000031900,-0.00010
 0.00000032000,-0.00010
 0.00000032100,-0.00010
 0.00000032200,-0.00010
 0.00000032300,-0.00010
 0.00000032400,-0.00010
 0.00000032500,-0.00010
 0.00000032600,-0.00010
 0.00000032700,-0.00010
 0.00000032800,-0.00010
 0.00000032900,-0.00010
 0.00000033000,-0.00010
 0.00000033100,-0.00010
 0.00000033200,-0.00010
 0.00000033300,-0.00010
 0.00000033400,-0.00010
 0.00000033500,0.00010
 0.00000033600,0.00010
 0.00000033700,0.00010
 0.00000033800,0.00010
 0.00000033900,0.00010
 0.00000034000,0.00010
 0.00000034100,0.00010
 0.00000034200,0.00010
 0.00000034300,0.00010
 0.00000034400,0.00010
 0.00000034500,0.00010
 0.00000034600,0.00010
 0.00000034700,0.00010
 0.00000034800,0.00030
 0.00000034900,0.00030
 0.00000035000,0.00030
 0.00000035100,0.00030
 0.00000035200,0.00030
 0.00000035300,0.00030
 0.00000035400,0.00050
 0.00000035500,0.00050
 0.00000035600,0.00050
 0.00000035700,0.00050
 0.00000035800,0.00050
 0.00000035900,0.00050
 0.00000036000,0.00050
 0.00000036100,0.00070
 0.00000036200,0.00070
 0.00000036300,0.00070
 0.00000036400,0.00070
 0.00000036500,0.00090
 0.00000036600,0.00090
 0.00000036700,0.00090
 0.00000036800,0.00090
 0.00000036900,0.00110
 0.00000037000,0.00110
 0.00000037100,0.00110
 0.00000037200,0.00130
 0.00000037300,0.00130
 0.00000037400,0.00150
 0.00000037500,0.00150
 0.00000037600,0.00150
 0.00000037700,0.00170
 0.00000037800,0.00170
 0.00000037900,0.00190
 0.00000038000,0.00190
 0.00000038100,0.00210
 0.00000038200,0.00230
 0.00000038300,0.00230
 0.00000038400,0.00250
 0.00000038500,0.00250
 0.00000038600,0.00270
 0.00000038700,0.00290
 0.00000038800,0.00310
 0.00000038900,0.00310
 0.00000039000,0.00330
 0.00000039100,0.00350
 0.00000039200,0.00370
 0.00000039300,0.00390
 0.00000039400,0.00390
 0.00000039500,0.00410
 0.00000039600,0.00430
 0.00000039700,0.00450
 0.00000039800,0.00470
 0.00000039900,0.00490
 0.00000040000,0.00510
 0.00000040100,0.00530
 0.00000040200,0.00550
 0.00000040300,0.00570
 0.00000040400,0.00610
 0.00000040500,0.00630
 0.00000040600,0.00650
 0.00000040700,0.00670
 0.00000040800,0.00690
 0.00000040900,0.00710
 0.00000041000,0.00750
 0.00000041100,0.00770
 0.00000041200,0.00790
 0.00000041300,0.00810
 0.00000041400,0.00850
 0.00000041500,0.00870
 0.00000041600,0.00910
 0.00000041700,0.00930
 0.00000041800,0.00970
 0.00000041900,0.00990
 0.00000042000,0.01030
 0.00000042100,0.01050
 0.00000042200,0.01090
 0.00000042300,0.01110
 0.00000042400,0.01150
 0.00000042500,0.01190
 0.00000042600,0.01210
 0.00000042700,0.01250
 0.00000042800,0.01290
 0.00000042900,0.01310
 0.00000043000,0.01350
 0.00000043100,0.01390
 0.00000043200,0.01430
 0.00000043300,0.01470
 0.00000043400,0.01510
 0.00000043500,0.01530
 0.00000043600,0.01570
 0.00000043700,0.01610
 0.00000043800,0.01650
 0.00000043900,0.01690
 0.00000044000,0.01730
 0.00000044100,0.01770
 0.00000044200,0.01810
 0.00000044300,0.01850
 0.00000044400,0.01890
 0.00000044500,0.01930
 0.00000044600,0.01970
 0.00000044700,0.02010
 0.00000044800,0.02050
 0.00000044900,0.02090
 0.00000045000,0.02130
 0.00000045100,0.02170
 0.00000045200,0.02210
 0.00000045300,0.02250
 0.00000045400,0.02310
 0.00000045500,0.02350
 0.00000045600,0.02390
 0.00000045700,0.02430
 0.00000045800,0.02470
 0.00000045900,0.02490
 0.00000046000,0.02530
 0.00000046100,0.02570
 0.00000046200,0.02610
 0.00000046300,0.02650
 0.00000046400,0.02690
 0.00000046500,0.02730
 0.00000046600,0.02770
 0.00000046700,0.02810
 0.00000046800,0.02850
 0.00000046900,0.02890
 0.00000047000,0.02930
 0.00000047100,0.02970
 0.00000047200,0.02990
 0.00000047300,0.03030
 0.00000047400,0.03070
 0.00000047500,0.03110
 0.00000047600,0.03130
 0.00000047700,0.03170
 0.00000047800,0.03210
 0.00000047900,0.03230
 0.00000048000,0.03270
 0.00000048100,0.03310
 0.00000048200,0.03330
 0.00000048300,0.03370
 0.00000048400,0.03390
 0.00000048500,0.03430
 0.00000048600,0.03450
 0.00000048700,0.03470
 0.00000048800,0.03510
 0.00000048900,0.03530
 0.00000049000,0.03550
 0.00000049100,0.03590
 0.00000049200,0.03610
 0.00000049300,0.03630
 0.00000049400,0.03650
 0.00000049500,0.03670
 0.00000049600,0.03690
 0.00000049700,0.03710
 0.00000049800,0.03730
 0.00000049900,0.03750
 0.00000050000,0.03770
 0.00000050100,0.03790
 0.00000050200,0.03810
 0.00000050300,0.03830
 0.00000050400,0.03850
 0.00000050500,0.03850
 0.00000050600,0.03870
 0.00000050700,0.03870
 0.00000050800,0.03890
 0.00000050900,0.03910
 0.00000051000,0.03910
 0.00000051100,0.03930
 0.00000051200,0.03930
 0.00000051300,0.03930
 0.00000051400,0.03950
 0.00000051500,0.03950
 0.00000051600,0.03970
 0.00000051700,0.03970
 0.00000051800,0.03970
 0.00000051900,0.03970
 0.00000052000,0.03990
 0.00000052100,0.03990
 0.00000052200,0.03990
 0.00000052300,0.03990
 0.00000052400,0.03990
 0.00000052500,0.03990
 0.00000052600,0.03990
 0.00000052700,0.04010
 0.00000052800,0.04010
 0.00000052900,0.04010
 0.00000053000,0.04010
 0.00000053100,0.04010
 0.00000053200,0.04010
 0.00000053300,0.04010
 0.00000053400,0.04010
 0.00000053500,0.03990
 0.00000053600,0.03990
 0.00000053700,0.03990
 0.00000053800,0.03990
 0.00000053900,0.03990
 0.00000054000,0.03990
 0.00000054100,0.03990
 0.00000054200,0.03990
 0.00000054300,0.03990
 0.00000054400,0.03990
 0.00000054500,0.03990
 0.00000054600,0.03970
 0.00000054700,0.03970
 0.00000054800,0.03970
 0.00000054900,0.03970
 0.00000055000,0.03970
 0.00000055100,0.03970
 0.00000055200,0.03970
 0.00000055300,0.03970
 0.00000055400,0.03970
 0.00000055500,0.03950
 0.00000055600,0.03950
 0.00000055700,0.03950
 0.00000055800,0.03950
 0.00000055900,0.03950
 0.00000056000,0.03950
 0.00000056100,0.03950
 0.00000056200,0.03930
 0.00000056300,0.03930
 0.00000056400,0.03930
 0.00000056500,0.03930
 0.00000056600,0.03930
 0.00000056700,0.03930
 0.00000056800,0.03930
 0.00000056900,0.03930
 0.00000057000,0.03930
 0.00000057100,0.03930
 0.00000057200,0.03930
 0.00000057300,0.03930
 0.00000057400,0.03930
 0.00000057500,0.03930
 0.00000057600,0.03930
 0.00000057700,0.03930
 0.00000057800,0.03930
 0.00000057900,0.03930
 0.00000058000,0.03930
 0.00000058100,0.03930
 0.00000058200,0.03930
 0.00000058300,0.03930
 0.00000058400,0.03930
 0.00000058500,0.03930
 0.00000058600,0.03930
 0.00000058700,0.03930
 0.00000058800,0.03930
 0.00000058900,0.03930
 0.00000059000,0.03930
 0.00000059100,0.03930
 0.00000059200,0.03950
 0.00000059300,0.03950
 0.00000059400,0.03950
 0.00000059500,0.03950
 0.00000059600,0.03950
 0.00000059700,0.03950
 0.00000059800,0.03950
 0.00000059900,0.03950
 0.00000060000,0.03950
 0.00000060100,0.03950
 0.00000060200,0.03950
 0.00000060300,0.03950
 0.00000060400,0.03970
 0.00000060500,0.03970
 0.00000060600,0.03970
 0.00000060700,0.03970
 0.00000060800,0.03970
 0.00000060900,0.03970
 0.00000061000,0.03970
 0.00000061100,0.03970
 0.00000061200,0.03970
 0.00000061300,0.03970
 0.00000061400,0.03970
 0.00000061500,0.03970
 0.00000061600,0.03970
 0.00000061700,0.03970
 0.00000061800,0.03970
 0.00000061900,0.03970
 0.00000062000,0.03970
 0.00000062100,0.03970
 0.00000062200,0.03970
 0.00000062300,0.03970
 0.00000062400,0.03970
 0.00000062500,0.03970
 0.00000062600,0.03970
 0.00000062700,0.03970
 0.00000062800,0.03970
 0.00000062900,0.03970
 0.00000063000,0.03970
 0.00000063100,0.03970
 0.00000063200,0.03970
 0.00000063300,0.03970
 0.00000063400,0.03970
 0.00000063500,0.03970
 0.00000063600,0.03970
 0.00000063700,0.03970
 0.00000063800,0.03970
 0.00000063900,0.03970
 0.00000064000,0.03970
 0.00000064100,0.03970
 0.00000064200,0.03950
 0.00000064300,0.03950
 0.00000064400,0.03950
 0.00000064500,0.03950
 0.00000064600,0.03950
 0.00000064700,0.03950
 0.00000064800,0.03950
 0.00000064900,0.03950
 0.00000065000,0.03950
 0.00000065100,0.03950
 0.00000065200,0.03950
 0.00000065300,0.03950
 0.00000065400,0.03970
 0.00000065500,0.03950
 0.00000065600,0.03950
 0.00000065700,0.03950
 0.00000065800,0.03950
 0.00000065900,0.03950
 0.00000066000,0.03950
 0.00000066100,0.03950
 0.00000066200,0.03950
 0.00000066300,0.03950
 0.00000066400,0.03950
 0.00000066500,0.03950
 0.00000066600,0.03950
 0.00000066700,0.03950
 0.00000066800,0.03950
 0.00000066900,0.03970
 0.00000067000,0.03970
 0.00000067100,0.03970
 0.00000067200,0.03970
 0.00000067300,0.03970
 0.00000067400,0.03970
 0.00000067500,0.03970
 0.00000067600,0.03970
 0.00000067700,0.03970
 0.00000067800,0.03970
 0.00000067900,0.03970
 0.00000068000,0.03970
 0.00000068100,0.03970
 0.00000068200,0.03970
 0.00000068300,0.03970
 0.00000068400,0.03970
 0.00000068500,0.03970
 0.00000068600,0.03970
 0.00000068700,0.03970
 0.00000068800,0.03970
 0.00000068900,0.03970
 0.00000069000,0.03970
 0.00000069100,0.03970
 0.00000069200,0.03970
 0.00000069300,0.03970
 0.00000069400,0.03970
 0.00000069500,0.03970
 0.00000069600,0.03970
 0.00000069700,0.03970
 0.00000069800,0.03970
 0.00000069900,0.03970
 0.00000070000,0.03970
 0.00000070100,0.03970
 0.00000070200,0.03970
 0.00000070300,0.03970
 0.00000070400,0.03970
 0.00000070500,0.03950
 0.00000070600,0.03950
 0.00000070700,0.03950
 0.00000070800,0.03950
 0.00000070900,0.03950
 0.00000071000,0.03950
 0.00000071100,0.03930
 0.00000071200,0.03930
 0.00000071300,0.03930
 0.00000071400,0.03930
 0.00000071500,0.03930
 0.00000071600,0.03910
 0.00000071700,0.03910
 0.00000071800,0.03910
 0.00000071900,0.03910
 0.00000072000,0.03890
 0.00000072100,0.03890
 0.00000072200,0.03890
 0.00000072300,0.03870
 0.00000072400,0.03870
 0.00000072500,0.03870
 0.00000072600,0.03870
 0.00000072700,0.03850
 0.00000072800,0.03850
 0.00000072900,0.03830
 0.00000073000,0.03830
 0.00000073100,0.03830
 0.00000073200,0.03810
 0.00000073300,0.03810
 0.00000073400,0.03810
 0.00000073500,0.03790
 0.00000073600,0.03790
 0.00000073700,0.03770
 0.00000073800,0.03770
 0.00000073900,0.03750
 0.00000074000,0.03750
 0.00000074100,0.03750
 0.00000074200,0.03730
 0.00000074300,0.03730
 0.00000074400,0.03710
 0.00000074500,0.03710
 0.00000074600,0.03690
 0.00000074700,0.03690
 0.00000074800,0.03670
 0.00000074900,0.03670
 0.00000075000,0.03650
 0.00000075100,0.03650
 0.00000075200,0.03630
 0.00000075300,0.03630
 0.00000075400,0.03630
 0.00000075500,0.03610
 0.00000075600,0.03590
 0.00000075700,0.03590
 0.00000075800,0.03570
 0.00000075900,0.03570
 0.00000076000,0.03550
 0.00000076100,0.03550
 0.00000076200,0.03530
 0.00000076300,0.03530
 0.00000076400,0.03510
 0.00000076500,0.03510
 0.00000076600,0.03490
 0.00000076700,0.03490
 0.00000076800,0.03470
 0.00000076900,0.03470
 0.00000077000,0.03450
 0.00000077100,0.03450
 0.00000077200,0.03430
 0.00000077300,0.03430
 0.00000077400,0.03410
 0.00000077500,0.03410
 0.00000077600,0.03390
 0.00000077700,0.03390
 0.00000077800,0.03370
 0.00000077900,0.03370
 0.00000078000,0.03350
 0.00000078100,0.03350
 0.00000078200,0.03330
 0.00000078300,0.03330
 0.00000078400,0.03330
 0.00000078500,0.03310
 0.00000078600,0.03310
 0.00000078700,0.03290
 0.00000078800,0.03290
 0.00000078900,0.03270
 0.00000079000,0.03270
 0.00000079100,0.03270
 0.00000079200,0.03250
 0.00000079300,0.03250
 0.00000079400,0.03230
 0.00000079500,0.03230
 0.00000079600,0.03230
 0.00000079700,0.03210
 0.00000079800,0.03210
 0.00000079900,0.03190
 0.00000080000,0.03190
 0.00000080100,0.03190
 0.00000080200,0.03170
 0.00000080300,0.03170
 0.00000080400,0.03170
 0.00000080500,0.03150
 0.00000080600,0.03150
 0.00000080700,0.03130
 0.00000080800,0.03130
 0.00000080900,0.03130
 0.00000081000,0.03110
 0.00000081100,0.03110
 0.00000081200,0.03090
 0.00000081300,0.03090
 0.00000081400,0.03090
 0.00000081500,0.03070
 0.00000081600,0.03070
 0.00000081700,0.03070
 0.00000081800,0.03050
 0.00000081900,0.03050
 0.00000082000,0.03030
 0.00000082100,0.03030
 0.00000082200,0.03030
 0.00000082300,0.03010
 0.00000082400,0.03010
 0.00000082500,0.03010
 0.00000082600,0.02990
 0.00000082700,0.02990
 0.00000082800,0.02990
 0.00000082900,0.02970
 0.00000083000,0.02970
 0.00000083100,0.02970
 0.00000083200,0.02950
 0.00000083300,0.02950
 0.00000083400,0.02950
 0.00000083500,0.02930
 0.00000083600,0.02930
 0.00000083700,0.02930
 0.00000083800,0.02910
 0.00000083900,0.02910
 0.00000084000,0.02890
 0.00000084100,0.02890
 0.00000084200,0.02890
 0.00000084300,0.02870
 0.00000084400,0.02870
 0.00000084500,0.02870
